{
  "products": [
    {
      "id": "4000014122085",
      "slug": "woman-hoodies-runway-high-quality-long-sleeve-cotton-sweatshirts-femalehoodies-sweatshirts-aliexpress",
      "supplier": 1,
      "active": true,
      "title": "woman hoodies runway high quality long sleeve cotton sweatshirts female|Hoodies & Sweatshirts| |  - AliExpress",
      "brand": "f120a261-5f19-a606-9358-f49b6f423c61",
      "category": "006dca468860d479a18ce2a59e02702e",
      "shortDescription": "woman hoodies runway high quality long sleeve cotton sweatshirts female|Hoodies & Sweatshirts| |  - AliExpress",
      "description": "Cheap Hoodies & Sweatshirts, Buy Directly from China Suppliers:woman hoodies runway high quality long sleeve cotton sweatshirts female\nEnjoy ✓Free Shipping Worldwide! ✓Limited Time Sale ✓Easy Return.",
      "extendedContent": [],
      "images": [
        {
          "url": "https://ae01.alicdn.com/kf/He0357c2b99ed4b978a2350c16634e64dL/woman-hoodies-runway-high-quality-long-sleeve-cotton-sweatshirts-female.jpg",
          "alt": "",
          "description": ""
        },
        {
          "url": "https://ae01.alicdn.com/kf/H772bf396c8414ff0a54049728801b40fg/woman-hoodies-runway-high-quality-long-sleeve-cotton-sweatshirts-female.jpg",
          "alt": "",
          "description": ""
        },
        {
          "url": "https://ae01.alicdn.com/kf/H85248191824240d0ad814200890ffc148/woman-hoodies-runway-high-quality-long-sleeve-cotton-sweatshirts-female.jpg",
          "alt": "",
          "description": ""
        },
        {
          "url": "https://ae01.alicdn.com/kf/H44844ee456934517b6ef348fb615c22a3/woman-hoodies-runway-high-quality-long-sleeve-cotton-sweatshirts-female.jpg",
          "alt": "",
          "description": ""
        },
        {
          "url": "https://ae01.alicdn.com/kf/H91910108faca4cc0b28cb6c447426096w/woman-hoodies-runway-high-quality-long-sleeve-cotton-sweatshirts-female.jpg",
          "alt": "",
          "description": ""
        },
        {
          "url": "https://ae01.alicdn.com/kf/H1a76dfb35c294c9faae23b889d4bd40dm/woman-hoodies-runway-high-quality-long-sleeve-cotton-sweatshirts-female.jpg",
          "alt": "",
          "description": ""
        }
      ],
      "variantAttributes": [],
      "variantOptions": [
        { "name": "Color", "values": ["3", "4", "1", "2"] },
        { "name": "Size", "values": ["34", "36", "38", "40"] }
      ],
      "variants": [
        {
          "id": "d1c8e5fe53d33e2b3a54dfe43fd43228750b5be7c6368b65571e52447501fdcc",
          "sku": "10000004332368364",
          "name": "",
          "upc": "10000004332368364",
          "prices": [{ "currency": "USD", "value": 58 }],
          "attributes": [],
          "dimensionsCm": { "x": 0, "y": 0, "z": 0 },
          "weightKg": 0,
          "options": [
            { "name": "Color", "value": "Blue" },
            { "name": "Size", "value": "40" }
          ],
          "images": [
            {
              "alt": "3",
              "description": "3",
              "url": "https://ae01.alicdn.com/kf/H8af619f9a90a40a7b1d6b12b0a9a320dr/woman-hoodies-runway-high-quality-long-sleeve-cotton-sweatshirts-female.jpg_640x640.jpg"
            }
          ],
          "locations": [{ "locationId": 1, "stockCount": 30 }]
        },
        {
          "id": "d1c8e5fe53d33e2b3a54dfe43fd43228750b5be7c6368b65571e52447501fdcc",
          "sku": "10000004332368362",
          "name": "",
          "upc": "10000004332368362",
          "prices": [{ "currency": "USD", "value": 58 }],
          "attributes": [],
          "dimensionsCm": { "x": 0, "y": 0, "z": 0 },
          "weightKg": 0,
          "options": [
            { "name": "Color", "value": "Blue" },
            { "name": "Size", "value": "38" }
          ],
          "images": [
            {
              "alt": "3",
              "description": "3",
              "url": "https://ae01.alicdn.com/kf/H8af619f9a90a40a7b1d6b12b0a9a320dr/woman-hoodies-runway-high-quality-long-sleeve-cotton-sweatshirts-female.jpg_640x640.jpg"
            }
          ],
          "locations": [{ "locationId": 1, "stockCount": 30 }]
        },
        {
          "id": "d9930642450d97bc93990324a804aa3a9aa658c915b27d9a856117e31db8083f",
          "sku": "10000004332368360",
          "name": "",
          "upc": "10000004332368360",
          "prices": [{ "currency": "USD", "value": 58 }],
          "attributes": [],
          "dimensionsCm": { "x": 0, "y": 0, "z": 0 },
          "weightKg": 0,
          "options": [
            { "name": "Color", "value": "Blue" },
            { "name": "Size", "value": "36" }
          ],
          "images": [
            {
              "alt": "3",
              "description": "3",
              "url": "https://ae01.alicdn.com/kf/H8af619f9a90a40a7b1d6b12b0a9a320dr/woman-hoodies-runway-high-quality-long-sleeve-cotton-sweatshirts-female.jpg_640x640.jpg"
            }
          ],
          "locations": [{ "locationId": 1, "stockCount": 28 }]
        },
        {
          "id": "d9930642450d97bc93990324a804aa3a9aa658c915b27d9a856117e31db8083f",
          "sku": "10000004332368360",
          "name": "",
          "upc": "10000004332368360",
          "prices": [{ "currency": "USD", "value": 58 }],
          "attributes": [],
          "dimensionsCm": { "x": 0, "y": 0, "z": 0 },
          "weightKg": 0,
          "options": [
            { "name": "Color", "value": "Blue" },
            { "name": "Size", "value": "34" }
          ],
          "images": [
            {
              "alt": "3",
              "description": "3",
              "url": "https://ae01.alicdn.com/kf/H8af619f9a90a40a7b1d6b12b0a9a320dr/woman-hoodies-runway-high-quality-long-sleeve-cotton-sweatshirts-female.jpg_640x640.jpg"
            }
          ],
          "locations": [{ "locationId": 1, "stockCount": 30 }]
        },
        {
          "id": "86f9e9340efdd1c9c0e23e81fb11465cd6389d0cada52b30d3b72a0a4381d551",
          "sku": "10000004332368368",
          "name": "",
          "upc": "10000004332368368",
          "prices": [{ "currency": "USD", "value": 58 }],
          "attributes": [],
          "dimensionsCm": { "x": 0, "y": 0, "z": 0 },
          "weightKg": 0,
          "options": [
            { "name": "Color", "value": "Red" },
            { "name": "Size", "value": "40" }
          ],
          "images": [
            {
              "alt": "1",
              "description": "1",
              "url": "https://ae01.alicdn.com/kf/H2c5a528379bd4e2daa56d3d2b3a5f240t/woman-hoodies-runway-high-quality-long-sleeve-cotton-sweatshirts-female.jpg_640x640.jpg"
            }
          ],
          "locations": [{ "locationId": 1, "stockCount": 30 }]
        },
        {
          "id": "86f9e9340efdd1c9c0e23e81fb11465cd6389d0cada52b30d3b72a0a4381d551",
          "sku": "10000004332368366",
          "name": "",
          "upc": "10000004332368366",
          "prices": [{ "currency": "USD", "value": 58 }],
          "attributes": [],
          "dimensionsCm": { "x": 0, "y": 0, "z": 0 },
          "weightKg": 0,
          "options": [
            { "name": "Color", "value": "Red" },
            { "name": "Size", "value": "38" }
          ],
          "images": [
            {
              "alt": "1",
              "description": "1",
              "url": "https://ae01.alicdn.com/kf/H2c5a528379bd4e2daa56d3d2b3a5f240t/woman-hoodies-runway-high-quality-long-sleeve-cotton-sweatshirts-female.jpg_640x640.jpg"
            }
          ],
          "locations": [{ "locationId": 1, "stockCount": 27 }]
        },
        {
          "id": "d1c8e5fe53d33e2b3a54dfe43fd43228750b5be7c6368b65571e52447501fdcc",
          "sku": "10000004332368364",
          "name": "",
          "upc": "10000004332368364",
          "prices": [{ "currency": "USD", "value": 58 }],
          "attributes": [],
          "dimensionsCm": { "x": 0, "y": 0, "z": 0 },
          "weightKg": 0,
          "options": [
            { "name": "Color", "value": "Red" },
            { "name": "Size", "value": "36" }
          ],
          "images": [
            {
              "alt": "1",
              "description": "1",
              "url": "https://ae01.alicdn.com/kf/H2c5a528379bd4e2daa56d3d2b3a5f240t/woman-hoodies-runway-high-quality-long-sleeve-cotton-sweatshirts-female.jpg_640x640.jpg"
            }
          ],
          "locations": [{ "locationId": 1, "stockCount": 30 }]
        },
        {
          "id": "d1c8e5fe53d33e2b3a54dfe43fd43228750b5be7c6368b65571e52447501fdcc",
          "sku": "10000004332368364",
          "name": "",
          "upc": "10000004332368364",
          "prices": [{ "currency": "USD", "value": 58 }],
          "attributes": [],
          "dimensionsCm": { "x": 0, "y": 0, "z": 0 },
          "weightKg": 0,
          "options": [
            { "name": "Color", "value": "Red" },
            { "name": "Size", "value": "34" }
          ],
          "images": [
            {
              "alt": "1",
              "description": "1",
              "url": "https://ae01.alicdn.com/kf/H2c5a528379bd4e2daa56d3d2b3a5f240t/woman-hoodies-runway-high-quality-long-sleeve-cotton-sweatshirts-female.jpg_640x640.jpg"
            }
          ],
          "locations": [{ "locationId": 1, "stockCount": 30 }]
        },
        {
          "id": "b2201c602e3077dcf20c15dded1d1eca5e60e53a7d7051389b77acf6d3000f32",
          "sku": "10000005188391816",
          "name": "",
          "upc": "10000005188391816",
          "prices": [{ "currency": "USD", "value": 58 }],
          "attributes": [],
          "dimensionsCm": { "x": 0, "y": 0, "z": 0 },
          "weightKg": 0,
          "options": [
            { "name": "Color", "value": "Purple" },
            { "name": "Size", "value": "36" }
          ],
          "images": [
            {
              "alt": "4",
              "description": "4",
              "url": "https://ae01.alicdn.com/kf/H794a0a2d370844a4ac04f95111a19622N/woman-hoodies-runway-high-quality-long-sleeve-cotton-sweatshirts-female.jpg_640x640.jpg"
            }
          ],
          "locations": [{ "locationId": 1, "stockCount": 30 }]
        },
        {
          "id": "b2201c602e3077dcf20c15dded1d1eca5e60e53a7d7051389b77acf6d3000f32",
          "sku": "10000005188391814",
          "name": "",
          "upc": "10000005188391814",
          "prices": [{ "currency": "USD", "value": 58 }],
          "attributes": [],
          "dimensionsCm": { "x": 0, "y": 0, "z": 0 },
          "weightKg": 0,
          "options": [
            { "name": "Color", "value": "Purple" },
            { "name": "Size", "value": "34" }
          ],
          "images": [
            {
              "alt": "4",
              "description": "4",
              "url": "https://ae01.alicdn.com/kf/H794a0a2d370844a4ac04f95111a19622N/woman-hoodies-runway-high-quality-long-sleeve-cotton-sweatshirts-female.jpg_640x640.jpg"
            }
          ],
          "locations": [{ "locationId": 1, "stockCount": 30 }]
        },
        {
          "id": "7d76fdeb7342f66aff6de89719bee41ce4b397f2385846389700e4b5b1cc76c3",
          "sku": "10000004332368372",
          "name": "",
          "upc": "10000004332368372",
          "prices": [{ "currency": "USD", "value": 58 }],
          "attributes": [],
          "dimensionsCm": { "x": 0, "y": 0, "z": 0 },
          "weightKg": 0,
          "options": [
            { "name": "Color", "value": "White" },
            { "name": "Size", "value": "40" }
          ],
          "images": [
            {
              "alt": "2",
              "description": "2",
              "url": "https://ae01.alicdn.com/kf/H5b5827fd98274c5eaf90234f9ead34ddk/woman-hoodies-runway-high-quality-long-sleeve-cotton-sweatshirts-female.png_640x640.png"
            }
          ],
          "locations": [{ "locationId": 1, "stockCount": 29 }]
        },
        {
          "id": "b2201c602e3077dcf20c15dded1d1eca5e60e53a7d7051389b77acf6d3000f32",
          "sku": "10000005188391816",
          "name": "",
          "upc": "10000005188391816",
          "prices": [{ "currency": "USD", "value": 58 }],
          "attributes": [],
          "dimensionsCm": { "x": 0, "y": 0, "z": 0 },
          "weightKg": 0,
          "options": [
            { "name": "Color", "value": "Purple" },
            { "name": "Size", "value": "40" }
          ],
          "images": [
            {
              "alt": "4",
              "description": "4",
              "url": "https://ae01.alicdn.com/kf/H794a0a2d370844a4ac04f95111a19622N/woman-hoodies-runway-high-quality-long-sleeve-cotton-sweatshirts-female.jpg_640x640.jpg"
            }
          ],
          "locations": [{ "locationId": 1, "stockCount": 30 }]
        },
        {
          "id": "7d76fdeb7342f66aff6de89719bee41ce4b397f2385846389700e4b5b1cc76c3",
          "sku": "10000004332368370",
          "name": "",
          "upc": "10000004332368370",
          "prices": [{ "currency": "USD", "value": 58 }],
          "attributes": [],
          "dimensionsCm": { "x": 0, "y": 0, "z": 0 },
          "weightKg": 0,
          "options": [
            { "name": "Color", "value": "White" },
            { "name": "Size", "value": "38" }
          ],
          "images": [
            {
              "alt": "2",
              "description": "2",
              "url": "https://ae01.alicdn.com/kf/H5b5827fd98274c5eaf90234f9ead34ddk/woman-hoodies-runway-high-quality-long-sleeve-cotton-sweatshirts-female.png_640x640.png"
            }
          ],
          "locations": [{ "locationId": 1, "stockCount": 29 }]
        },
        {
          "id": "b2201c602e3077dcf20c15dded1d1eca5e60e53a7d7051389b77acf6d3000f32",
          "sku": "10000005188391816",
          "name": "",
          "upc": "10000005188391816",
          "prices": [{ "currency": "USD", "value": 58 }],
          "attributes": [],
          "dimensionsCm": { "x": 0, "y": 0, "z": 0 },
          "weightKg": 0,
          "options": [
            { "name": "Color", "value": "Purple" },
            { "name": "Size", "value": "38" }
          ],
          "images": [
            {
              "alt": "4",
              "description": "4",
              "url": "https://ae01.alicdn.com/kf/H794a0a2d370844a4ac04f95111a19622N/woman-hoodies-runway-high-quality-long-sleeve-cotton-sweatshirts-female.jpg_640x640.jpg"
            }
          ],
          "locations": [{ "locationId": 1, "stockCount": 30 }]
        },
        {
          "id": "86f9e9340efdd1c9c0e23e81fb11465cd6389d0cada52b30d3b72a0a4381d551",
          "sku": "10000004332368368",
          "name": "",
          "upc": "10000004332368368",
          "prices": [{ "currency": "USD", "value": 58 }],
          "attributes": [],
          "dimensionsCm": { "x": 0, "y": 0, "z": 0 },
          "weightKg": 0,
          "options": [
            { "name": "Color", "value": "White" },
            { "name": "Size", "value": "36" }
          ],
          "images": [
            {
              "alt": "2",
              "description": "2",
              "url": "https://ae01.alicdn.com/kf/H5b5827fd98274c5eaf90234f9ead34ddk/woman-hoodies-runway-high-quality-long-sleeve-cotton-sweatshirts-female.png_640x640.png"
            }
          ],
          "locations": [{ "locationId": 1, "stockCount": 30 }]
        },
        {
          "id": "86f9e9340efdd1c9c0e23e81fb11465cd6389d0cada52b30d3b72a0a4381d551",
          "sku": "10000004332368368",
          "name": "",
          "upc": "10000004332368368",
          "prices": [{ "currency": "USD", "value": 58 }],
          "attributes": [],
          "dimensionsCm": { "x": 0, "y": 0, "z": 0 },
          "weightKg": 0,
          "options": [
            { "name": "Color", "value": "White" },
            { "name": "Size", "value": "34" }
          ],
          "images": [
            {
              "alt": "2",
              "description": "2",
              "url": "https://ae01.alicdn.com/kf/H5b5827fd98274c5eaf90234f9ead34ddk/woman-hoodies-runway-high-quality-long-sleeve-cotton-sweatshirts-female.png_640x640.png"
            }
          ],
          "locations": [{ "locationId": 1, "stockCount": 29 }]
        }
      ],
      "priceType": "RETAIL",
      "attributes": [],
      "i18n": [
        {
          "description": "Cheap Hoodies & Sweatshirts, Buy Directly from China Suppliers:woman hoodies runway high quality long sleeve cotton sweatshirts female\nEnjoy ✓Free Shipping Worldwide! ✓Limited Time Sale ✓Easy Return.",
          "extendedContent": [],
          "language": "en",
          "shortDescription": "woman hoodies runway high quality long sleeve cotton sweatshirts female|Hoodies & Sweatshirts| |  - AliExpress",
          "slug": "woman-hoodies-runway-high-quality-long-sleeve-cotton-sweatshirts-femalehoodies-sweatshirts-aliexpress",
          "title": "woman hoodies runway high quality long sleeve cotton sweatshirts female|Hoodies & Sweatshirts| |  - AliExpress"
        }
      ],
      "addons": [],
      "meta": { "title": "", "description": "" },
      "language": "en"
    }
  ],
  "categories": [],
  "brands": [
    {
      "id": "f120a261-5f19-a606-9358-f49b6f423c61",
      "name": "AliExpress default branding",
      "description": "AliExpress default branding",
      "i18n": [],
      "language": "en",
      "bannerImage": {
        "alt": "AliExpress Banner",
        "description": "AliExpress Banner",
        "url": "https://picsum.photos/200"
      }
    }
  ]
}
